<?xml version="1.0" encoding="UTF-8"?>
<svg xmlns="http://www.w3.org/2000/svg" xmlns:xlink="http://www.w3.org/1999/xlink" width="1122.03125pt" height="1471.234375pt" viewBox="0 0 1122.03125 1471.234375" version="1.1">
<defs>
<g>
<symbol overflow="visible" id="glyph0-0">
<path style="stroke:none;" d=""/>
</symbol>
<symbol overflow="visible" id="glyph0-1">
<path style="stroke:none;" d="M 95.484375 -208.890625 L 32 -208.890625 L 0 -153.59375 L 29.703125 -102.40625 L 0 -51.203125 L 32 4.09375 L 95.484375 4.09375 L 127.484375 -51.203125 L 97.796875 -102.40625 L 127.484375 -153.59375 Z M 90.875 -200.703125 L 118.015625 -153.59375 L 90.875 -106.5 L 36.609375 -106.5 L 9.46875 -153.59375 L 36.609375 -200.703125 Z M 26.875 -81.40625 L 36.609375 -98.296875 L 42.234375 -98.296875 L 42.234375 -4.09375 L 36.609375 -4.09375 L 26.875 -20.984375 Z M 61.703125 -4.09375 L 46.34375 -4.09375 L 46.34375 -98.296875 L 61.703125 -98.296875 Z M 81.15625 -98.296875 L 81.15625 -4.09375 L 65.796875 -4.09375 L 65.796875 -98.296875 Z M 85.25 -4.09375 L 85.25 -98.296875 L 90.875 -98.296875 L 100.609375 -81.40625 L 100.609375 -20.984375 L 90.875 -4.09375 Z M 22.78125 -28.15625 L 9.46875 -51.203125 L 22.78125 -74.234375 Z M 104.703125 -74.234375 L 118.015625 -51.203125 L 104.703125 -28.15625 Z M 104.703125 -74.234375 "/>
</symbol>
<symbol overflow="visible" id="glyph0-2">
<path style="stroke:none;" d="M 95.484375 -208.890625 L 32 -208.890625 L 0 -153.59375 L 29.703125 -102.40625 L 0 -51.203125 L 32 4.09375 L 95.484375 4.09375 L 127.484375 -51.203125 L 97.796875 -102.40625 L 127.484375 -153.59375 Z M 90.875 -200.703125 L 118.015625 -153.59375 L 90.875 -106.5 L 36.609375 -106.5 L 9.46875 -153.59375 L 36.609375 -200.703125 Z M 36.609375 -4.09375 L 9.46875 -51.203125 L 36.609375 -98.296875 L 90.875 -98.296875 L 118.015625 -51.203125 L 90.875 -4.09375 Z M 36.609375 -4.09375 "/>
</symbol>
<symbol overflow="visible" id="glyph0-3">
<path style="stroke:none;" d="M 32 -157.703125 L 0 -102.40625 L 32 -47.109375 L 95.484375 -47.109375 L 127.484375 -102.40625 L 95.484375 -157.703125 Z M 90.875 -149.5 L 97.796875 -137.734375 L 29.953125 -137.734375 L 36.609375 -149.5 Z M 20.21875 -121.09375 L 27.390625 -133.625 L 100.09375 -133.625 L 107.265625 -121.09375 Z M 17.921875 -116.984375 L 109.5625 -116.984375 L 116.734375 -104.453125 L 10.75 -104.453125 Z M 10.75 -100.359375 L 116.734375 -100.359375 L 109.5625 -87.8125 L 17.921875 -87.8125 Z M 107.265625 -83.71875 L 100.09375 -71.171875 L 27.390625 -71.171875 L 20.21875 -83.71875 Z M 36.609375 -55.296875 L 29.953125 -67.078125 L 97.796875 -67.078125 L 90.875 -55.296875 Z M 36.609375 -55.296875 "/>
</symbol>
<symbol overflow="visible" id="glyph0-4">
<path style="stroke:none;" d="M 0 -134.140625 L 0 -70.65625 L 55.296875 -38.65625 L 110.59375 -70.65625 L 110.59375 -134.140625 L 55.296875 -166.140625 Z M 102.40625 -129.53125 L 102.40625 -75.265625 L 55.296875 -48.125 L 8.1875 -75.265625 L 8.1875 -129.53125 L 55.296875 -156.671875 Z M 102.40625 -129.53125 "/>
</symbol>
<symbol overflow="visible" id="glyph0-5">
<path style="stroke:none;" d="M 95.484375 -208.890625 L 32 -208.890625 L 0 -153.59375 L 29.703125 -102.40625 L 0 -51.203125 L 32 4.09375 L 95.484375 4.09375 L 127.484375 -51.203125 L 97.796875 -102.40625 L 127.484375 -153.59375 Z M 90.875 -200.703125 L 97.796875 -188.921875 L 29.953125 -188.921875 L 36.609375 -200.703125 Z M 20.21875 -172.28125 L 27.390625 -184.828125 L 100.09375 -184.828125 L 107.265625 -172.28125 Z M 116.734375 -155.640625 L 10.75 -155.640625 L 17.921875 -168.1875 L 109.5625 -168.1875 Z M 109.5625 -139.015625 L 17.921875 -139.015625 L 10.75 -151.546875 L 116.734375 -151.546875 Z M 100.09375 -122.375 L 27.390625 -122.375 L 20.21875 -134.90625 L 107.265625 -134.90625 Z M 29.953125 -118.265625 L 97.796875 -118.265625 L 90.875 -106.5 L 36.609375 -106.5 Z M 36.609375 -98.296875 L 90.875 -98.296875 L 97.796875 -86.53125 L 29.953125 -86.53125 Z M 27.390625 -82.4375 L 100.09375 -82.4375 L 107.265625 -69.890625 L 20.21875 -69.890625 Z M 17.921875 -65.796875 L 109.5625 -65.796875 L 116.734375 -53.25 L 10.75 -53.25 Z M 10.75 -49.15625 L 116.734375 -49.15625 L 109.5625 -36.609375 L 17.921875 -36.609375 Z M 107.265625 -32.515625 L 100.09375 -19.96875 L 27.390625 -19.96875 L 20.21875 -32.515625 Z M 36.609375 -4.09375 L 29.953125 -15.875 L 97.796875 -15.875 L 90.875 -4.09375 Z M 36.609375 -4.09375 "/>
</symbol>
<symbol overflow="visible" id="glyph0-6">
<path style="stroke:none;" d="M 95.484375 -208.890625 L 32 -208.890625 L 0 -153.59375 L 29.703125 -102.40625 L 0 -51.203125 L 32 4.09375 L 95.484375 4.09375 L 127.484375 -51.203125 L 97.796875 -102.40625 L 127.484375 -153.59375 Z M 90.875 -200.703125 L 97.796875 -188.921875 L 29.953125 -188.921875 L 36.609375 -200.703125 Z M 20.21875 -172.28125 L 27.390625 -184.828125 L 100.09375 -184.828125 L 107.265625 -172.28125 Z M 116.734375 -155.640625 L 10.75 -155.640625 L 17.921875 -168.1875 L 109.5625 -168.1875 Z M 109.5625 -139.015625 L 17.921875 -139.015625 L 10.75 -151.546875 L 116.734375 -151.546875 Z M 100.09375 -122.375 L 27.390625 -122.375 L 20.21875 -134.90625 L 107.265625 -134.90625 Z M 29.953125 -118.265625 L 97.796875 -118.265625 L 90.875 -106.5 L 36.609375 -106.5 Z M 38.90625 -98.296875 L 53.25 -98.296875 L 99.328125 -18.6875 L 92.15625 -6.140625 Z M 108.796875 -35.328125 L 101.625 -22.78125 L 58.109375 -98.296875 L 72.703125 -98.296875 Z M 77.3125 -98.296875 L 90.875 -98.296875 L 118.015625 -51.203125 L 111.359375 -39.421875 Z M 35.328125 -96.25 L 88.578125 -4.09375 L 74.234375 -4.09375 L 28.15625 -83.71875 Z M 54.78125 -4.09375 L 18.6875 -67.078125 L 25.859375 -79.609375 L 69.375 -4.09375 Z M 16.125 -62.96875 L 50.171875 -4.09375 L 36.609375 -4.09375 L 9.46875 -51.203125 Z M 16.125 -62.96875 "/>
</symbol>
<symbol overflow="visible" id="glyph0-7">
<path style="stroke:none;" d="M 0 -134.140625 L 0 -70.65625 L 55.296875 -38.65625 L 110.59375 -70.65625 L 110.59375 -134.140625 L 55.296875 -166.140625 Z M 32.25 -143.359375 L 55.296875 -156.671875 L 78.34375 -143.359375 Z M 85.5 -139.265625 L 102.40625 -129.53125 L 102.40625 -123.90625 L 8.1875 -123.90625 L 8.1875 -129.53125 L 25.09375 -139.265625 Z M 8.1875 -119.8125 L 102.40625 -119.8125 L 102.40625 -104.453125 L 8.1875 -104.453125 Z M 102.40625 -84.984375 L 8.1875 -84.984375 L 8.1875 -100.359375 L 102.40625 -100.359375 Z M 25.09375 -65.53125 L 8.1875 -75.265625 L 8.1875 -80.890625 L 102.40625 -80.890625 L 102.40625 -75.265625 L 85.5 -65.53125 Z M 78.34375 -61.4375 L 55.296875 -48.125 L 32.25 -61.4375 Z M 78.34375 -61.4375 "/>
</symbol>
<symbol overflow="visible" id="glyph0-8">
<path style="stroke:none;" d="M 95.484375 -208.890625 L 32 -208.890625 L 0 -153.59375 L 29.703125 -102.40625 L 0 -51.203125 L 32 4.09375 L 95.484375 4.09375 L 127.484375 -51.203125 L 97.796875 -102.40625 L 127.484375 -153.59375 Z M 42.234375 -200.703125 L 42.234375 -106.5 L 36.609375 -106.5 L 26.875 -123.390625 L 26.875 -183.8125 L 36.609375 -200.703125 Z M 46.34375 -106.5 L 46.34375 -200.703125 L 61.703125 -200.703125 L 61.703125 -106.5 Z M 81.15625 -200.703125 L 81.15625 -106.5 L 65.796875 -106.5 L 65.796875 -200.703125 Z M 100.609375 -123.390625 L 90.875 -106.5 L 85.25 -106.5 L 85.25 -200.703125 L 90.875 -200.703125 L 100.609375 -183.8125 Z M 22.78125 -130.5625 L 9.46875 -153.59375 L 22.78125 -176.640625 Z M 104.703125 -176.640625 L 118.015625 -153.59375 L 104.703125 -130.5625 Z M 26.875 -81.40625 L 36.609375 -98.296875 L 42.234375 -98.296875 L 42.234375 -4.09375 L 36.609375 -4.09375 L 26.875 -20.984375 Z M 61.703125 -4.09375 L 46.34375 -4.09375 L 46.34375 -98.296875 L 61.703125 -98.296875 Z M 81.15625 -98.296875 L 81.15625 -4.09375 L 65.796875 -4.09375 L 65.796875 -98.296875 Z M 85.25 -4.09375 L 85.25 -98.296875 L 90.875 -98.296875 L 100.609375 -81.40625 L 100.609375 -20.984375 L 90.875 -4.09375 Z M 22.78125 -28.15625 L 9.46875 -51.203125 L 22.78125 -74.234375 Z M 104.703125 -74.234375 L 118.015625 -51.203125 L 104.703125 -28.15625 Z M 104.703125 -74.234375 "/>
</symbol>
<symbol overflow="visible" id="glyph0-9">
<path style="stroke:none;" d="M 106.5 -136.453125 L 55.296875 -166.140625 L 0 -134.140625 L 0 -70.65625 L 55.296875 -38.65625 L 106.5 -68.359375 L 157.703125 -38.65625 L 212.984375 -70.65625 L 212.984375 -134.140625 L 157.703125 -166.140625 Z M 32.25 -143.359375 L 55.296875 -156.671875 L 78.34375 -143.359375 Z M 134.65625 -143.359375 L 157.703125 -156.671875 L 180.734375 -143.359375 Z M 85.5 -139.265625 L 102.40625 -129.53125 L 102.40625 -123.90625 L 8.1875 -123.90625 L 8.1875 -129.53125 L 25.09375 -139.265625 Z M 110.59375 -123.90625 L 110.59375 -129.53125 L 127.484375 -139.265625 L 187.90625 -139.265625 L 204.796875 -129.53125 L 204.796875 -123.90625 Z M 8.1875 -104.453125 L 8.1875 -119.8125 L 102.40625 -119.8125 L 102.40625 -104.453125 Z M 110.59375 -119.8125 L 204.796875 -119.8125 L 204.796875 -104.453125 L 110.59375 -104.453125 Z M 102.40625 -84.984375 L 8.1875 -84.984375 L 8.1875 -100.359375 L 102.40625 -100.359375 Z M 204.796875 -100.359375 L 204.796875 -84.984375 L 110.59375 -84.984375 L 110.59375 -100.359375 Z M 102.40625 -80.890625 L 102.40625 -75.265625 L 85.5 -65.53125 L 25.09375 -65.53125 L 8.1875 -75.265625 L 8.1875 -80.890625 Z M 127.484375 -65.53125 L 110.59375 -75.265625 L 110.59375 -80.890625 L 204.796875 -80.890625 L 204.796875 -75.265625 L 187.90625 -65.53125 Z M 78.34375 -61.4375 L 55.296875 -48.125 L 32.25 -61.4375 Z M 180.734375 -61.4375 L 157.703125 -48.125 L 134.65625 -61.4375 Z M 180.734375 -61.4375 "/>
</symbol>
<symbol overflow="visible" id="glyph0-10">
<path style="stroke:none;" d="M 106.5 -136.453125 L 55.296875 -166.140625 L 0 -134.140625 L 0 -70.65625 L 55.296875 -38.65625 L 106.5 -68.359375 L 157.703125 -38.65625 L 212.984375 -70.65625 L 212.984375 -134.140625 L 157.703125 -166.140625 Z M 32.25 -143.359375 L 55.296875 -156.671875 L 78.34375 -143.359375 Z M 204.796875 -115.96875 L 145.921875 -150.015625 L 157.703125 -156.671875 L 204.796875 -129.53125 Z M 141.828125 -147.453125 L 204.796875 -111.359375 L 204.796875 -96.765625 L 129.28125 -140.28125 Z M 85.5 -139.265625 L 102.40625 -129.53125 L 102.40625 -123.90625 L 8.1875 -123.90625 L 8.1875 -129.53125 L 25.09375 -139.265625 Z M 125.1875 -137.984375 L 204.796875 -91.90625 L 204.796875 -77.5625 L 112.640625 -130.8125 Z M 110.59375 -127.234375 L 202.75 -73.984375 L 190.203125 -66.8125 L 110.59375 -112.890625 Z M 8.1875 -104.453125 L 8.1875 -119.8125 L 102.40625 -119.8125 L 102.40625 -104.453125 Z M 186.109375 -64.515625 L 173.5625 -57.34375 L 110.59375 -93.4375 L 110.59375 -108.03125 Z M 102.40625 -84.984375 L 8.1875 -84.984375 L 8.1875 -100.359375 L 102.40625 -100.359375 Z M 110.59375 -88.828125 L 169.46875 -54.78125 L 157.703125 -48.125 L 110.59375 -75.265625 Z M 102.40625 -80.890625 L 102.40625 -75.265625 L 85.5 -65.53125 L 25.09375 -65.53125 L 8.1875 -75.265625 L 8.1875 -80.890625 Z M 78.34375 -61.4375 L 55.296875 -48.125 L 32.25 -61.4375 Z M 78.34375 -61.4375 "/>
</symbol>
<symbol overflow="visible" id="glyph0-11">
<path style="stroke:none;" d="M 110.59375 -178.4375 L 55.296875 -210.4375 L 0 -178.4375 L 0 -114.9375 L 51.203125 -85.25 L 51.203125 -26.375 L 106.5 5.625 L 161.796875 -26.375 L 161.796875 -89.859375 L 110.59375 -119.546875 Z M 53.25 -199.6875 L 53.25 -93.703125 L 40.703125 -100.859375 L 40.703125 -192.515625 Z M 57.34375 -93.703125 L 57.34375 -199.6875 L 69.890625 -192.515625 L 69.890625 -100.859375 Z M 24.0625 -110.34375 L 24.0625 -183.046875 L 36.609375 -190.203125 L 36.609375 -103.171875 Z M 73.984375 -190.203125 L 86.53125 -183.046875 L 86.53125 -110.34375 L 73.984375 -103.171875 Z M 19.96875 -180.734375 L 19.96875 -112.890625 L 8.1875 -119.546875 L 8.1875 -173.828125 Z M 90.625 -112.890625 L 90.625 -180.734375 L 102.40625 -173.828125 L 102.40625 -119.546875 Z M 129.53125 -99.078125 L 83.453125 -99.078125 L 106.5 -112.390625 Z M 59.390625 -79.609375 L 59.390625 -85.25 L 76.28125 -94.96875 L 136.703125 -94.96875 L 153.59375 -85.25 L 153.59375 -79.609375 Z M 59.390625 -75.515625 L 153.59375 -75.515625 L 153.59375 -60.15625 L 59.390625 -60.15625 Z M 153.59375 -56.0625 L 153.59375 -40.703125 L 59.390625 -40.703125 L 59.390625 -56.0625 Z M 76.28125 -21.25 L 59.390625 -30.96875 L 59.390625 -36.609375 L 153.59375 -36.609375 L 153.59375 -30.96875 L 136.703125 -21.25 Z M 129.53125 -17.15625 L 106.5 -3.84375 L 83.453125 -17.15625 Z M 129.53125 -17.15625 "/>
</symbol>
<symbol overflow="visible" id="glyph0-12">
<path style="stroke:none;" d="M 32 -157.703125 L 0 -102.40625 L 32 -47.109375 L 95.484375 -47.109375 L 127.484375 -102.40625 L 95.484375 -157.703125 Z M 50.171875 -149.5 L 16.125 -90.625 L 9.46875 -102.40625 L 36.609375 -149.5 Z M 25.859375 -73.984375 L 18.6875 -86.53125 L 54.78125 -149.5 L 69.375 -149.5 Z M 74.234375 -149.5 L 88.578125 -149.5 L 35.328125 -57.34375 L 28.15625 -69.890625 Z M 53.25 -55.296875 L 38.90625 -55.296875 L 92.15625 -147.453125 L 99.328125 -134.90625 Z M 72.703125 -55.296875 L 58.109375 -55.296875 L 101.625 -130.8125 L 108.796875 -118.265625 Z M 77.3125 -55.296875 L 111.359375 -114.171875 L 118.015625 -102.40625 L 90.875 -55.296875 Z M 77.3125 -55.296875 "/>
</symbol>
<symbol overflow="visible" id="glyph0-13">
<path style="stroke:none;" d="M 161.796875 -178.4375 L 106.5 -210.4375 L 51.203125 -178.4375 L 51.203125 -119.546875 L 0 -89.859375 L 0 -26.375 L 55.296875 5.625 L 106.5 -24.0625 L 157.703125 5.625 L 212.984375 -26.375 L 212.984375 -89.859375 L 161.796875 -119.546875 Z M 91.90625 -100.859375 L 91.90625 -192.515625 L 104.453125 -199.6875 L 104.453125 -93.703125 Z M 108.546875 -93.703125 L 108.546875 -199.6875 L 121.09375 -192.515625 L 121.09375 -100.859375 Z M 75.265625 -110.34375 L 75.265625 -183.046875 L 87.8125 -190.203125 L 87.8125 -103.171875 Z M 125.1875 -190.203125 L 137.734375 -183.046875 L 137.734375 -110.34375 L 125.1875 -103.171875 Z M 71.171875 -180.734375 L 71.171875 -112.890625 L 59.390625 -119.546875 L 59.390625 -173.828125 Z M 141.828125 -112.890625 L 141.828125 -180.734375 L 153.59375 -173.828125 L 153.59375 -119.546875 Z M 53.25 -111.109375 L 53.25 -5.125 L 40.703125 -12.28125 L 40.703125 -103.9375 Z M 69.890625 -103.9375 L 69.890625 -12.28125 L 57.34375 -5.125 L 57.34375 -111.109375 Z M 155.640625 -111.109375 L 155.640625 -5.125 L 143.109375 -12.28125 L 143.109375 -103.9375 Z M 172.28125 -103.9375 L 172.28125 -12.28125 L 159.75 -5.125 L 159.75 -111.109375 Z M 24.0625 -21.765625 L 24.0625 -94.46875 L 36.609375 -101.625 L 36.609375 -14.59375 Z M 86.53125 -94.46875 L 86.53125 -21.765625 L 73.984375 -14.59375 L 73.984375 -101.625 Z M 139.015625 -14.59375 L 126.46875 -21.765625 L 126.46875 -94.46875 L 139.015625 -101.625 Z M 188.921875 -94.46875 L 188.921875 -21.765625 L 176.390625 -14.59375 L 176.390625 -101.625 Z M 19.96875 -92.15625 L 19.96875 -24.3125 L 8.1875 -30.96875 L 8.1875 -85.25 Z M 102.40625 -85.25 L 102.40625 -30.96875 L 90.625 -24.3125 L 90.625 -92.15625 Z M 122.375 -92.15625 L 122.375 -24.3125 L 110.59375 -30.96875 L 110.59375 -85.25 Z M 193.03125 -24.3125 L 193.03125 -92.15625 L 204.796875 -85.25 L 204.796875 -30.96875 Z M 193.03125 -24.3125 "/>
</symbol>
<symbol overflow="visible" id="glyph0-14">
<path style="stroke:none;" d="M 106.5 -210.4375 L 51.203125 -178.4375 L 51.203125 -119.546875 L 0 -89.859375 L 0 -26.375 L 55.296875 5.625 L 110.59375 -26.375 L 110.59375 -85.25 L 161.796875 -114.9375 L 161.796875 -178.4375 Z M 91.90625 -100.859375 L 91.90625 -192.515625 L 104.453125 -199.6875 L 104.453125 -93.703125 Z M 121.09375 -192.515625 L 121.09375 -100.859375 L 108.546875 -93.703125 L 108.546875 -199.6875 Z M 75.265625 -110.34375 L 75.265625 -183.046875 L 87.8125 -190.203125 L 87.8125 -103.171875 Z M 137.734375 -183.046875 L 137.734375 -110.34375 L 125.1875 -103.171875 L 125.1875 -190.203125 Z M 71.171875 -180.734375 L 71.171875 -112.890625 L 59.390625 -119.546875 L 59.390625 -173.828125 Z M 141.828125 -112.890625 L 141.828125 -180.734375 L 153.59375 -173.828125 L 153.59375 -119.546875 Z M 53.25 -111.109375 L 53.25 -5.125 L 40.703125 -12.28125 L 40.703125 -103.9375 Z M 69.890625 -103.9375 L 69.890625 -12.28125 L 57.34375 -5.125 L 57.34375 -111.109375 Z M 24.0625 -21.765625 L 24.0625 -94.46875 L 36.609375 -101.625 L 36.609375 -14.59375 Z M 86.53125 -94.46875 L 86.53125 -21.765625 L 73.984375 -14.59375 L 73.984375 -101.625 Z M 19.96875 -92.15625 L 19.96875 -24.3125 L 8.1875 -30.96875 L 8.1875 -85.25 Z M 90.625 -24.3125 L 90.625 -92.15625 L 102.40625 -85.25 L 102.40625 -30.96875 Z M 90.625 -24.3125 "/>
</symbol>
<symbol overflow="visible" id="glyph0-15">
<path style="stroke:none;" d="M 32 -47.109375 L 95.484375 -47.109375 L 127.484375 -102.40625 L 95.484375 -157.703125 L 32 -157.703125 L 0 -102.40625 Z M 36.609375 -149.5 L 90.875 -149.5 L 118.015625 -102.40625 L 90.875 -55.296875 L 36.609375 -55.296875 L 9.46875 -102.40625 Z M 36.609375 -149.5 "/>
</symbol>
<symbol overflow="visible" id="glyph0-16">
<path style="stroke:none;" d="M 95.484375 -208.890625 L 32 -208.890625 L 0 -153.59375 L 29.703125 -102.40625 L 0 -51.203125 L 32 4.09375 L 95.484375 4.09375 L 127.484375 -51.203125 L 97.796875 -102.40625 L 127.484375 -153.59375 Z M 90.875 -200.703125 L 118.015625 -153.59375 L 90.875 -106.5 L 36.609375 -106.5 L 9.46875 -153.59375 L 36.609375 -200.703125 Z M 38.90625 -98.296875 L 53.25 -98.296875 L 99.328125 -18.6875 L 92.15625 -6.140625 Z M 108.796875 -35.328125 L 101.625 -22.78125 L 58.109375 -98.296875 L 72.703125 -98.296875 Z M 77.3125 -98.296875 L 90.875 -98.296875 L 118.015625 -51.203125 L 111.359375 -39.421875 Z M 35.328125 -96.25 L 88.578125 -4.09375 L 74.234375 -4.09375 L 28.15625 -83.71875 Z M 54.78125 -4.09375 L 18.6875 -67.078125 L 25.859375 -79.609375 L 69.375 -4.09375 Z M 16.125 -62.96875 L 50.171875 -4.09375 L 36.609375 -4.09375 L 9.46875 -51.203125 Z M 16.125 -62.96875 "/>
</symbol>
<symbol overflow="visible" id="glyph0-17">
<path style="stroke:none;" d="M 9.46875 -51.203125 L 36.609375 -98.296875 L 90.875 -98.296875 L 118.015625 -51.203125 L 127.484375 -51.203125 L 97.796875 -102.40625 L 127.484375 -153.59375 L 118.015625 -153.59375 L 90.875 -106.5 L 36.609375 -106.5 L 9.46875 -153.59375 L 0 -153.59375 L 29.703125 -102.40625 L 0 -51.203125 Z M 9.46875 -51.203125 "/>
</symbol>
<symbol overflow="visible" id="glyph0-18">
<path style="stroke:none;" d="M 110.59375 -178.4375 L 55.296875 -210.4375 L 0 -178.4375 L 0 -114.9375 L 51.203125 -85.25 L 51.203125 -26.375 L 106.5 5.625 L 161.796875 -26.375 L 161.796875 -89.859375 L 110.59375 -119.546875 Z M 55.296875 -200.953125 L 102.40625 -173.828125 L 102.40625 -119.546875 L 55.296875 -92.421875 L 8.1875 -119.546875 L 8.1875 -173.828125 Z M 129.53125 -99.078125 L 83.453125 -99.078125 L 106.5 -112.390625 Z M 59.390625 -79.609375 L 59.390625 -85.25 L 76.28125 -94.96875 L 136.703125 -94.96875 L 153.59375 -85.25 L 153.59375 -79.609375 Z M 59.390625 -75.515625 L 153.59375 -75.515625 L 153.59375 -60.15625 L 59.390625 -60.15625 Z M 153.59375 -56.0625 L 153.59375 -40.703125 L 59.390625 -40.703125 L 59.390625 -56.0625 Z M 76.28125 -21.25 L 59.390625 -30.96875 L 59.390625 -36.609375 L 153.59375 -36.609375 L 153.59375 -30.96875 L 136.703125 -21.25 Z M 129.53125 -17.15625 L 106.5 -3.84375 L 83.453125 -17.15625 Z M 129.53125 -17.15625 "/>
</symbol>
<symbol overflow="visible" id="glyph0-19">
<path style="stroke:none;" d="M 106.5 -210.4375 L 51.203125 -178.4375 L 51.203125 -119.546875 L 0 -89.859375 L 0 -26.375 L 55.296875 5.625 L 110.59375 -26.375 L 110.59375 -85.25 L 161.796875 -114.9375 L 161.796875 -178.4375 Z M 83.453125 -187.640625 L 106.5 -200.953125 L 129.53125 -187.640625 Z M 136.703125 -183.546875 L 153.59375 -173.828125 L 153.59375 -168.1875 L 59.390625 -168.1875 L 59.390625 -173.828125 L 76.28125 -183.546875 Z M 59.390625 -164.09375 L 153.59375 -164.09375 L 153.59375 -148.734375 L 59.390625 -148.734375 Z M 153.59375 -129.28125 L 59.390625 -129.28125 L 59.390625 -144.640625 L 153.59375 -144.640625 Z M 76.28125 -109.828125 L 59.390625 -119.546875 L 59.390625 -125.1875 L 153.59375 -125.1875 L 153.59375 -119.546875 L 136.703125 -109.828125 Z M 32.25 -99.078125 L 55.296875 -112.390625 L 78.34375 -99.078125 Z M 129.53125 -105.734375 L 106.5 -92.421875 L 83.453125 -105.734375 Z M 85.5 -94.96875 L 102.40625 -85.25 L 102.40625 -79.609375 L 8.1875 -79.609375 L 8.1875 -85.25 L 25.09375 -94.96875 Z M 8.1875 -75.515625 L 102.40625 -75.515625 L 102.40625 -60.15625 L 8.1875 -60.15625 Z M 102.40625 -40.703125 L 8.1875 -40.703125 L 8.1875 -56.0625 L 102.40625 -56.0625 Z M 25.09375 -21.25 L 8.1875 -30.96875 L 8.1875 -36.609375 L 102.40625 -36.609375 L 102.40625 -30.96875 L 85.5 -21.25 Z M 78.34375 -17.15625 L 55.296875 -3.84375 L 32.25 -17.15625 Z M 78.34375 -17.15625 "/>
</symbol>
<symbol overflow="visible" id="glyph0-20">
<path style="stroke:none;" d="M 106.5 -136.453125 L 55.296875 -166.140625 L 0 -134.140625 L 0 -70.65625 L 55.296875 -38.65625 L 106.5 -68.359375 L 157.703125 -38.65625 L 212.984375 -70.65625 L 212.984375 -134.140625 L 157.703125 -166.140625 Z M 67.078125 -150.015625 L 8.1875 -115.96875 L 8.1875 -129.53125 L 55.296875 -156.671875 Z M 204.796875 -115.96875 L 145.921875 -150.015625 L 157.703125 -156.671875 L 204.796875 -129.53125 Z M 71.171875 -147.453125 L 83.71875 -140.28125 L 8.1875 -96.765625 L 8.1875 -111.359375 Z M 141.828125 -147.453125 L 204.796875 -111.359375 L 204.796875 -96.765625 L 129.28125 -140.28125 Z M 87.8125 -137.984375 L 100.359375 -130.8125 L 8.1875 -77.5625 L 8.1875 -91.90625 Z M 125.1875 -137.984375 L 204.796875 -91.90625 L 204.796875 -77.5625 L 112.640625 -130.8125 Z M 102.40625 -112.890625 L 22.78125 -66.8125 L 10.234375 -73.984375 L 102.40625 -127.234375 Z M 110.59375 -127.234375 L 202.75 -73.984375 L 190.203125 -66.8125 L 110.59375 -112.890625 Z M 102.40625 -93.4375 L 39.421875 -57.34375 L 26.875 -64.515625 L 102.40625 -108.03125 Z M 186.109375 -64.515625 L 173.5625 -57.34375 L 110.59375 -93.4375 L 110.59375 -108.03125 Z M 102.40625 -88.828125 L 102.40625 -75.265625 L 55.296875 -48.125 L 43.515625 -54.78125 Z M 110.59375 -88.828125 L 169.46875 -54.78125 L 157.703125 -48.125 L 110.59375 -75.265625 Z M 110.59375 -88.828125 "/>
</symbol>
<symbol overflow="visible" id="glyph0-21">
<path style="stroke:none;" d="M 32 -157.703125 L 0 -102.40625 L 32 -47.109375 L 95.484375 -47.109375 L 127.484375 -102.40625 L 95.484375 -157.703125 Z M 26.875 -132.609375 L 36.609375 -149.5 L 42.234375 -149.5 L 42.234375 -55.296875 L 36.609375 -55.296875 L 26.875 -72.1875 Z M 46.34375 -55.296875 L 46.34375 -149.5 L 61.703125 -149.5 L 61.703125 -55.296875 Z M 81.15625 -149.5 L 81.15625 -55.296875 L 65.796875 -55.296875 L 65.796875 -149.5 Z M 85.25 -55.296875 L 85.25 -149.5 L 90.875 -149.5 L 100.609375 -132.609375 L 100.609375 -72.1875 L 90.875 -55.296875 Z M 22.78125 -79.359375 L 9.46875 -102.40625 L 22.78125 -125.4375 Z M 104.703125 -79.359375 L 104.703125 -125.4375 L 118.015625 -102.40625 Z M 104.703125 -79.359375 "/>
</symbol>
<symbol overflow="visible" id="glyph0-22">
<path style="stroke:none;" d="M 0 -134.140625 L 0 -70.65625 L 55.296875 -38.65625 L 110.59375 -70.65625 L 110.59375 -134.140625 L 55.296875 -166.140625 Z M 53.25 -155.390625 L 53.25 -49.40625 L 40.703125 -56.578125 L 40.703125 -148.21875 Z M 69.890625 -148.21875 L 69.890625 -56.578125 L 57.34375 -49.40625 L 57.34375 -155.390625 Z M 24.0625 -66.046875 L 24.0625 -138.75 L 36.609375 -145.921875 L 36.609375 -58.875 Z M 86.53125 -138.75 L 86.53125 -66.046875 L 73.984375 -58.875 L 73.984375 -145.921875 Z M 19.96875 -136.453125 L 19.96875 -68.609375 L 8.1875 -75.265625 L 8.1875 -129.53125 Z M 90.625 -68.609375 L 90.625 -136.453125 L 102.40625 -129.53125 L 102.40625 -75.265625 Z M 90.625 -68.609375 "/>
</symbol>
<symbol overflow="visible" id="glyph0-23">
<path style="stroke:none;" d="M 106.5 -136.453125 L 55.296875 -166.140625 L 0 -134.140625 L 0 -70.65625 L 55.296875 -38.65625 L 106.5 -68.359375 L 157.703125 -38.65625 L 212.984375 -70.65625 L 212.984375 -134.140625 L 157.703125 -166.140625 Z M 53.25 -155.390625 L 53.25 -49.40625 L 40.703125 -56.578125 L 40.703125 -148.21875 Z M 69.890625 -148.21875 L 69.890625 -56.578125 L 57.34375 -49.40625 L 57.34375 -155.390625 Z M 155.640625 -155.390625 L 155.640625 -49.40625 L 143.109375 -56.578125 L 143.109375 -148.21875 Z M 172.28125 -148.21875 L 172.28125 -56.578125 L 159.75 -49.40625 L 159.75 -155.390625 Z M 24.0625 -66.046875 L 24.0625 -138.75 L 36.609375 -145.921875 L 36.609375 -58.875 Z M 86.53125 -138.75 L 86.53125 -66.046875 L 73.984375 -58.875 L 73.984375 -145.921875 Z M 126.46875 -66.046875 L 126.46875 -138.75 L 139.015625 -145.921875 L 139.015625 -58.875 Z M 188.921875 -138.75 L 188.921875 -66.046875 L 176.390625 -58.875 L 176.390625 -145.921875 Z M 19.96875 -136.453125 L 19.96875 -68.609375 L 8.1875 -75.265625 L 8.1875 -129.53125 Z M 102.40625 -129.53125 L 102.40625 -75.265625 L 90.625 -68.609375 L 90.625 -136.453125 Z M 122.375 -136.453125 L 122.375 -68.609375 L 110.59375 -75.265625 L 110.59375 -129.53125 Z M 193.03125 -68.609375 L 193.03125 -136.453125 L 204.796875 -129.53125 L 204.796875 -75.265625 Z M 193.03125 -68.609375 "/>
</symbol>
<symbol overflow="visible" id="glyph0-24">
<path style="stroke:none;" d="M 0 -134.140625 L 0 -70.65625 L 55.296875 -38.65625 L 110.59375 -70.65625 L 110.59375 -134.140625 L 55.296875 -166.140625 Z M 40.703125 -143.359375 L 40.703125 -148.21875 L 53.25 -155.390625 L 53.25 -143.359375 Z M 57.34375 -143.359375 L 57.34375 -155.390625 L 69.890625 -148.21875 L 69.890625 -143.359375 Z M 32.25 -143.359375 L 36.609375 -145.921875 L 36.609375 -143.359375 Z M 73.984375 -145.921875 L 78.34375 -143.359375 L 73.984375 -143.359375 Z M 36.609375 -139.265625 L 36.609375 -123.90625 L 24.0625 -123.90625 L 24.0625 -138.75 L 25.09375 -139.265625 Z M 40.703125 -123.90625 L 40.703125 -139.265625 L 53.25 -139.265625 L 53.25 -123.90625 Z M 69.890625 -139.265625 L 69.890625 -123.90625 L 57.34375 -123.90625 L 57.34375 -139.265625 Z M 73.984375 -139.265625 L 85.5 -139.265625 L 86.53125 -138.75 L 86.53125 -123.90625 L 73.984375 -123.90625 Z M 19.96875 -123.90625 L 8.1875 -123.90625 L 8.1875 -129.53125 L 19.96875 -136.453125 Z M 90.625 -123.90625 L 90.625 -136.453125 L 102.40625 -129.53125 L 102.40625 -123.90625 Z M 8.1875 -104.453125 L 8.1875 -119.8125 L 19.96875 -119.8125 L 19.96875 -104.453125 Z M 36.609375 -104.453125 L 24.0625 -104.453125 L 24.0625 -119.8125 L 36.609375 -119.8125 Z M 53.25 -104.453125 L 40.703125 -104.453125 L 40.703125 -119.8125 L 53.25 -119.8125 Z M 57.34375 -119.8125 L 69.890625 -119.8125 L 69.890625 -104.453125 L 57.34375 -104.453125 Z M 86.53125 -119.8125 L 86.53125 -104.453125 L 73.984375 -104.453125 L 73.984375 -119.8125 Z M 90.625 -119.8125 L 102.40625 -119.8125 L 102.40625 -104.453125 L 90.625 -104.453125 Z M 19.96875 -84.984375 L 8.1875 -84.984375 L 8.1875 -100.359375 L 19.96875 -100.359375 Z M 36.609375 -100.359375 L 36.609375 -84.984375 L 24.0625 -84.984375 L 24.0625 -100.359375 Z M 53.25 -84.984375 L 40.703125 -84.984375 L 40.703125 -100.359375 L 53.25 -100.359375 Z M 57.34375 -100.359375 L 69.890625 -100.359375 L 69.890625 -84.984375 L 57.34375 -84.984375 Z M 73.984375 -100.359375 L 86.53125 -100.359375 L 86.53125 -84.984375 L 73.984375 -84.984375 Z M 102.40625 -100.359375 L 102.40625 -84.984375 L 90.625 -84.984375 L 90.625 -100.359375 Z M 19.96875 -80.890625 L 19.96875 -68.609375 L 8.1875 -75.265625 L 8.1875 -80.890625 Z M 36.609375 -65.53125 L 25.09375 -65.53125 L 24.0625 -66.046875 L 24.0625 -80.890625 L 36.609375 -80.890625 Z M 53.25 -65.53125 L 40.703125 -65.53125 L 40.703125 -80.890625 L 53.25 -80.890625 Z M 69.890625 -80.890625 L 69.890625 -65.53125 L 57.34375 -65.53125 L 57.34375 -80.890625 Z M 73.984375 -65.53125 L 73.984375 -80.890625 L 86.53125 -80.890625 L 86.53125 -66.046875 L 85.5 -65.53125 Z M 90.625 -80.890625 L 102.40625 -80.890625 L 102.40625 -75.265625 L 90.625 -68.609375 Z M 36.609375 -58.875 L 32.25 -61.4375 L 36.609375 -61.4375 Z M 53.25 -61.4375 L 53.25 -49.40625 L 40.703125 -56.578125 L 40.703125 -61.4375 Z M 69.890625 -61.4375 L 69.890625 -56.578125 L 57.34375 -49.40625 L 57.34375 -61.4375 Z M 78.34375 -61.4375 L 73.984375 -58.875 L 73.984375 -61.4375 Z M 78.34375 -61.4375 "/>
</symbol>
<symbol overflow="visible" id="glyph0-25">
<path style="stroke:none;" d="M 183.8125 -183.296875 L 120.3125 -183.296875 L 90.625 -132.09375 L 32 -132.09375 L 0 -76.796875 L 32 -21.5 L 95.484375 -21.5 L 125.1875 -72.703125 L 183.8125 -72.703125 L 215.8125 -128 Z M 130.5625 -175.109375 L 130.5625 -80.890625 L 125.1875 -80.890625 L 115.203125 -98.046875 L 115.203125 -158.203125 L 124.921875 -175.109375 Z M 134.65625 -80.890625 L 134.65625 -175.109375 L 150.015625 -175.109375 L 150.015625 -80.890625 Z M 169.46875 -175.109375 L 169.46875 -80.890625 L 154.109375 -80.890625 L 154.109375 -175.109375 Z M 173.5625 -175.109375 L 179.203125 -175.109375 L 188.921875 -158.203125 L 188.921875 -97.796875 L 179.203125 -80.890625 L 173.5625 -80.890625 Z M 111.109375 -151.046875 L 111.109375 -105.21875 L 97.796875 -128 Z M 193.03125 -151.046875 L 206.34375 -128 L 193.03125 -104.953125 Z M 90.625 -123.90625 L 97.53125 -112.125 L 29.953125 -112.125 L 36.609375 -123.90625 Z M 20.21875 -95.484375 L 27.390625 -108.03125 L 99.84375 -108.03125 L 107.015625 -95.484375 Z M 116.734375 -78.84375 L 10.75 -78.84375 L 17.921875 -91.390625 L 109.5625 -91.390625 Z M 10.75 -74.75 L 116.734375 -74.75 L 109.5625 -62.203125 L 17.921875 -62.203125 Z M 107.265625 -58.109375 L 100.09375 -45.5625 L 27.390625 -45.5625 L 20.21875 -58.109375 Z M 36.609375 -29.703125 L 29.953125 -41.46875 L 97.796875 -41.46875 L 90.875 -29.703125 Z M 36.609375 -29.703125 "/>
</symbol>
<symbol overflow="visible" id="glyph0-26">
<path style="stroke:none;" d="M 125.1875 -132.09375 L 95.484375 -183.296875 L 32 -183.296875 L 0 -128 L 32 -72.703125 L 90.875 -72.703125 L 120.578125 -21.5 L 184.0625 -21.5 L 216.0625 -76.796875 L 184.0625 -132.09375 Z M 90.875 -175.109375 L 97.796875 -163.328125 L 29.953125 -163.328125 L 36.609375 -175.109375 Z M 20.21875 -146.6875 L 27.390625 -159.234375 L 100.09375 -159.234375 L 107.265625 -146.6875 Z M 116.734375 -130.046875 L 10.75 -130.046875 L 17.921875 -142.59375 L 109.5625 -142.59375 Z M 109.5625 -113.40625 L 17.921875 -113.40625 L 10.75 -125.953125 L 116.734375 -125.953125 Z M 118.53125 -112.125 L 125.1875 -123.90625 L 179.453125 -123.90625 L 186.375 -112.125 Z M 107.265625 -109.3125 L 100.09375 -96.765625 L 27.390625 -96.765625 L 20.21875 -109.3125 Z M 108.796875 -95.484375 L 115.96875 -108.03125 L 188.671875 -108.03125 L 195.84375 -95.484375 Z M 97.796875 -92.671875 L 90.875 -80.890625 L 36.609375 -80.890625 L 29.953125 -92.671875 Z M 106.5 -91.390625 L 198.140625 -91.390625 L 205.3125 -78.84375 L 99.328125 -78.84375 Z M 99.328125 -74.75 L 205.3125 -74.75 L 198.140625 -62.203125 L 106.5 -62.203125 Z M 195.84375 -58.109375 L 188.671875 -45.5625 L 115.96875 -45.5625 L 108.796875 -58.109375 Z M 125.1875 -29.703125 L 118.53125 -41.46875 L 186.375 -41.46875 L 179.453125 -29.703125 Z M 125.1875 -29.703125 "/>
</symbol>
</g>
</defs>
<g id="surface1">
<rect x="0" y="0" width="1122.03125" height="1471.234375" style="fill:rgb(13.333333%,33.333333%,33.333333%);fill-opacity:1;stroke:none;"/>
<g style="fill:rgb(66.666667%,80%,60%);fill-opacity:1;">
  <use xlink:href="#glyph0-1" x="16" y="220.796875"/>
  <use xlink:href="#glyph0-2" x="143.484375" y="220.796875"/>
  <use xlink:href="#glyph0-3" x="270.96875" y="220.796875"/>
  <use xlink:href="#glyph0-4" x="398.453125" y="220.796875"/>
</g>
<g style="fill:rgb(66.666667%,80%,60%);fill-opacity:1;">
  <use xlink:href="#glyph0-5" x="16" y="528"/>
  <use xlink:href="#glyph0-6" x="143.484375" y="528"/>
  <use xlink:href="#glyph0-7" x="270.96875" y="528"/>
  <use xlink:href="#glyph0-8" x="381.5625" y="528"/>
</g>
<g style="fill:rgb(66.666667%,80%,60%);fill-opacity:1;">
  <use xlink:href="#glyph0-9" x="16" y="835.203125"/>
  <use xlink:href="#glyph0-10" x="228.984375" y="835.203125"/>
  <use xlink:href="#glyph0-11" x="441.96875" y="835.203125"/>
  <use xlink:href="#glyph0-12" x="603.765625" y="835.203125"/>
  <use xlink:href="#glyph0-13" x="731.25" y="835.203125"/>
  <use xlink:href="#glyph0-14" x="944.234375" y="835.203125"/>
</g>
<g style="fill:rgb(66.666667%,80%,60%);fill-opacity:1;">
  <use xlink:href="#glyph0-15" x="16" y="1142.40625"/>
  <use xlink:href="#glyph0-16" x="143.484375" y="1142.40625"/>
  <use xlink:href="#glyph0-17" x="270.96875" y="1142.40625"/>
  <use xlink:href="#glyph0-18" x="398.453125" y="1142.40625"/>
  <use xlink:href="#glyph0-19" x="560.25" y="1142.40625"/>
  <use xlink:href="#glyph0-20" x="722.046875" y="1142.40625"/>
</g>
<g style="fill:rgb(66.666667%,80%,60%);fill-opacity:1;">
  <use xlink:href="#glyph0-21" x="16" y="1449.609375"/>
  <use xlink:href="#glyph0-22" x="143.484375" y="1449.609375"/>
  <use xlink:href="#glyph0-23" x="254.078125" y="1449.609375"/>
  <use xlink:href="#glyph0-24" x="467.0625" y="1449.609375"/>
  <use xlink:href="#glyph0-25" x="577.65625" y="1449.609375"/>
  <use xlink:href="#glyph0-26" x="793.46875" y="1449.609375"/>
</g>
</g>
</svg>
